{
  "id": 701430,
  "title": "Simulation",
  "base": "simulation",
  "icon": "mdi-chart-bell-curve",
  "items": [
    {
      "id": 259010,
      "title": "1 Grundlagen",
      "page": "1-basics/",
      "items": [
        {
          "id": 942887,
          "title": "Modellieren",
          "page": "1-basics/1-model/"
        },
        {
          "id": 44259,
          "title": "Simulieren",
          "page": "1-basics/2-simulate/"
        },
        {
          "id": 218880,
          "title": "Validieren",
          "page": "1-basics/3-validate/"
        }
      ]
    },
    {
      "id": 908198,
      "title": "2 Dynamische Simulation",
      "page": "2-dynamic/",
      "items": [
        {
          "id": 368446,
          "title": "2.1 VenSim-Tutorial",
          "page": "2-dynamic/1-vensim/"
        },
        {
          "id": 48513,
          "title": "2.2 Nakurusee",
          "page": "2-dynamic/2-nakuru/"
        },
        {
          "id": 280607,
          "title": "2.3 Nahrungsnetze",
          "page": "2-dynamic/3-food-web/"
        }
      ]
    },
    {
      "id": 402301,
      "title": "3 Räuber-Beute-Beziehung",
      "page": "3-predator-prey/",
      "items": [
        {
          "id": 570075,
          "title": "3.1 Lotka-Volterra-Regeln",
          "page": "3-predator-prey/1-lotka-volterra/"
        },
        {
          "id": 794955,
          "title": "3.2 Differentialgleichungen",
          "page": "3-predator-prey/2-differential-equations/"
        },
        {
          "id": 476185,
          "title": "3.3 Nummerische Näherung",
          "page": "3-predator-prey/3-nummeric-approximation/"
        },
        {
          "id": 57239,
          "title": "3.4 Multiagenten-Simulation",
          "page": "3-predator-prey/4-wa-tor/"
        },
        {
          "id": 878808,
          "title": "3.5 Brettspiel",
          "page": "3-predator-prey/5-board-game/"
        }
      ]
    },
    {
      "id": 748038,
      "title": "4 Monte-Carlo-Simulation",
      "page": "4-monte-carlo/",
      "items": [
        {
          "id": 212,
          "title": "4.1 Näherung von π",
          "page": "4-monte-carlo/1-pi/"
        },
        {
          "id": 970454,
          "title": "4.2 Monty Hall-Problem",
          "page": "4-monte-carlo/2-monty-hall/"
        },
        {
          "id": 821678,
          "title": "Übungen",
          "page": "4-monte-carlo/exercises/"
        }
      ]
    },
    {
      "id": 300294,
      "title": "5 Multiagenten-Simulation",
      "page": "5-multi-agent/",
      "items": [
        {
          "id": 977534,
          "title": "Modell - System",
          "page": "5-multi-agent/1-system/"
        },
        {
          "id": 727586,
          "title": "Scratch - System",
          "page": "5-multi-agent/2-system-scratch/"
        },
        {
          "id": 731351,
          "title": "Zustandsdiagramm",
          "icon": "reference",
          "page": "/ref/diagram/statechart/"
        },
        {
          "id": 71419,
          "title": "Modell - Infektion",
          "page": "5-multi-agent/3-infection/"
        },
        {
          "id": 69014,
          "title": "Scratch - Infektion",
          "page": "5-multi-agent/4-infection-scratch/"
        },
        {
          "id": 478497,
          "title": "Auswertung",
          "page": "5-multi-agent/5-evaluation/"
        },
        {
          "id": 495165,
          "title": "Scratch - Auswertung",
          "page": "5-multi-agent/6-evaluation-scratch/"
        }
      ]
    },
    {
      "id": 178497,
      "title": "6 Physikalische Simulation",
      "page": "6-physics/",
      "items": [
        {
          "id": 453788,
          "title": "Modell",
          "page": "6-physics/1-model/"
        },
        {
          "id": 221535,
          "title": "Kontinuierliche Simulation",
          "page": "6-physics/2-continuous/"
        },
        {
          "id": 70157,
          "title": "Diskrete Simulation",
          "page": "6-physics/3-discrete/"
        }
      ]
    },
    {
      "id": 552132,
      "title": "7 Zelluläre Automaten",
      "page": "7-cellular-automata/",
      "items": [
        {
          "id": 291883,
          "title": "Game of Life",
          "page": "7-cellular-automata/2-game-of-life/"
        }
      ]
    },
    {
      "id": 473094,
      "title": "Material für Lehrer:innen",
      "page": "teaching/"
    }
  ]
}
